…
``` r
earliest_storms <- all_storms|>
  select(YEAR, EVENT_TYPE)|>
  group_by(EVENT_TYPE)|>
  summarise(min_year = min(YEAR))|>
  arrange(min_year)
  


print(earliest_storms)
```

    ## # A tibble: 37 × 2
    ##    EVENT_TYPE        min_year
    ##    <chr>                <int>
    ##  1 Tornado               1950
    ##  2 Hail                  1955
    ##  3 Thunderstorm Wind     1955
    ##  4 Blizzard              1996
    ##  5 Coastal Flood         1996
    ##  6 Cold/Wind Chill       1996
    ##  7 Dense Fog             1996
    ##  8 Drought               1996
    ##  9 Flash Flood           1996
    ## 10 Flood                 1996
    ## # ℹ 27 more rows
